2022-08-02T10:48:40+02:00|reframe 3.11.0-dev.3+74413987|SpackTest %num_procs=8 %num_threads=4 %bindings=spread @inti:rome-bxi+gnu-11|jobid=1211432|num_tasks=8|ElapsedTime=0.181993|ref=0 (l=null, u=null)|s
2022-08-02T10:50:29+02:00|reframe 3.11.0-dev.3+74413987|SpackTest %num_procs=8 %num_threads=4 %bindings=spread @inti:rome-bxi+gnu-11|jobid=1211519|num_tasks=8|ElapsedTime=0.21062|ref=0 (l=null, u=null)|s
2022-08-02T10:52:15+02:00|reframe 3.11.0-dev.3+74413987|SpackTest %num_procs=8 %num_threads=4 %bindings=spread @inti:rome-bxi+gnu-11|jobid=1211601|num_tasks=8|ElapsedTime=0.221635|ref=0 (l=null, u=null)|s
2022-08-02T10:54:03+02:00|reframe 3.11.0-dev.3+74413987|SpackTest %num_procs=8 %num_threads=4 %bindings=spread @inti:rome-bxi+gnu-11|jobid=1211694|num_tasks=8|ElapsedTime=0.155842|ref=0 (l=null, u=null)|s
2022-08-02T10:55:57+02:00|reframe 3.11.0-dev.3+74413987|SpackTest %num_procs=8 %num_threads=4 %bindings=spread @inti:rome-bxi+gnu-11|jobid=1211786|num_tasks=8|ElapsedTime=0.205518|ref=0 (l=null, u=null)|s
2022-08-02T10:57:43+02:00|reframe 3.11.0-dev.3+74413987|SpackTest %num_procs=8 %num_threads=4 %bindings=spread @inti:rome-bxi+gnu-11|jobid=1211874|num_tasks=8|ElapsedTime=0.186235|ref=0 (l=null, u=null)|s
2022-08-02T10:59:39+02:00|reframe 3.11.0-dev.3+74413987|SpackTest %num_procs=8 %num_threads=4 %bindings=spread @inti:rome-bxi+gnu-11|jobid=1211963|num_tasks=8|ElapsedTime=0.169862|ref=0 (l=null, u=null)|s
2022-08-02T11:01:27+02:00|reframe 3.11.0-dev.3+74413987|SpackTest %num_procs=8 %num_threads=4 %bindings=spread @inti:rome-bxi+gnu-11|jobid=1212047|num_tasks=8|ElapsedTime=0.210604|ref=0 (l=null, u=null)|s
2022-08-02T11:03:14+02:00|reframe 3.11.0-dev.3+74413987|SpackTest %num_procs=8 %num_threads=4 %bindings=spread @inti:rome-bxi+gnu-11|jobid=1212132|num_tasks=8|ElapsedTime=0.320437|ref=0 (l=null, u=null)|s
2022-08-02T11:05:05+02:00|reframe 3.11.0-dev.3+74413987|SpackTest %num_procs=8 %num_threads=4 %bindings=spread @inti:rome-bxi+gnu-11|jobid=1212225|num_tasks=8|ElapsedTime=0.237757|ref=0 (l=null, u=null)|s
