2022-08-02T10:48:16+02:00|reframe 3.11.0-dev.3+74413987|SpackTest %num_procs=16 %num_threads=64 %bindings=spread @inti:rome-bxi+gnu-11|jobid=1211408|num_tasks=16|ElapsedTime=0.167644|ref=0 (l=null, u=null)|s
2022-08-02T10:50:03+02:00|reframe 3.11.0-dev.3+74413987|SpackTest %num_procs=16 %num_threads=64 %bindings=spread @inti:rome-bxi+gnu-11|jobid=1211493|num_tasks=16|ElapsedTime=0.195013|ref=0 (l=null, u=null)|s
2022-08-02T10:51:50+02:00|reframe 3.11.0-dev.3+74413987|SpackTest %num_procs=16 %num_threads=64 %bindings=spread @inti:rome-bxi+gnu-11|jobid=1211576|num_tasks=16|ElapsedTime=0.190458|ref=0 (l=null, u=null)|s
2022-08-02T10:53:37+02:00|reframe 3.11.0-dev.3+74413987|SpackTest %num_procs=16 %num_threads=64 %bindings=spread @inti:rome-bxi+gnu-11|jobid=1211667|num_tasks=16|ElapsedTime=0.197931|ref=0 (l=null, u=null)|s
2022-08-02T10:55:30+02:00|reframe 3.11.0-dev.3+74413987|SpackTest %num_procs=16 %num_threads=64 %bindings=spread @inti:rome-bxi+gnu-11|jobid=1211761|num_tasks=16|ElapsedTime=0.183662|ref=0 (l=null, u=null)|s
2022-08-02T10:57:18+02:00|reframe 3.11.0-dev.3+74413987|SpackTest %num_procs=16 %num_threads=64 %bindings=spread @inti:rome-bxi+gnu-11|jobid=1211847|num_tasks=16|ElapsedTime=0.18834|ref=0 (l=null, u=null)|s
2022-08-02T10:59:20+02:00|reframe 3.11.0-dev.3+74413987|SpackTest %num_procs=16 %num_threads=64 %bindings=spread @inti:rome-bxi+gnu-11|jobid=1211939|num_tasks=16|ElapsedTime=0.2068|ref=0 (l=null, u=null)|s
2022-08-02T11:01:08+02:00|reframe 3.11.0-dev.3+74413987|SpackTest %num_procs=16 %num_threads=64 %bindings=spread @inti:rome-bxi+gnu-11|jobid=1212023|num_tasks=16|ElapsedTime=0.201327|ref=0 (l=null, u=null)|s
2022-08-02T11:02:55+02:00|reframe 3.11.0-dev.3+74413987|SpackTest %num_procs=16 %num_threads=64 %bindings=spread @inti:rome-bxi+gnu-11|jobid=1212106|num_tasks=16|ElapsedTime=0.205177|ref=0 (l=null, u=null)|s
2022-08-02T11:04:45+02:00|reframe 3.11.0-dev.3+74413987|SpackTest %num_procs=16 %num_threads=64 %bindings=spread @inti:rome-bxi+gnu-11|jobid=1212199|num_tasks=16|ElapsedTime=0.195711|ref=0 (l=null, u=null)|s
