2022-08-03T15:00:20+02:00|reframe 3.11.0-dev.3+74413987|SpackTest %num_procs=1 %num_threads=2 %bindings=spread @inti:rome-bxi+gnu-11|jobid=1216116|num_tasks=1|ElapsedTime=14.6601|ref=0 (l=null, u=null)|s
2022-08-03T15:02:43+02:00|reframe 3.11.0-dev.3+74413987|SpackTest %num_procs=1 %num_threads=2 %bindings=spread @inti:rome-bxi+gnu-11|jobid=1216247|num_tasks=1|ElapsedTime=13.9883|ref=0 (l=null, u=null)|s
2022-08-03T15:21:42+02:00|reframe 3.11.0-dev.3+74413987|SpackTest %num_procs=1 %num_threads=2 %bindings=spread @inti:rome-bxi+gnu-11|jobid=1216412|num_tasks=1|ElapsedTime=14.3714|ref=0 (l=null, u=null)|s
2022-08-03T15:23:55+02:00|reframe 3.11.0-dev.3+74413987|SpackTest %num_procs=1 %num_threads=2 %bindings=spread @inti:rome-bxi+gnu-11|jobid=1216497|num_tasks=1|ElapsedTime=13.876|ref=0 (l=null, u=null)|s
2022-08-03T15:26:03+02:00|reframe 3.11.0-dev.3+74413987|SpackTest %num_procs=1 %num_threads=2 %bindings=spread @inti:rome-bxi+gnu-11|jobid=1216583|num_tasks=1|ElapsedTime=13.9931|ref=0 (l=null, u=null)|s
2022-08-03T15:28:13+02:00|reframe 3.11.0-dev.3+74413987|SpackTest %num_procs=1 %num_threads=2 %bindings=spread @inti:rome-bxi+gnu-11|jobid=1216672|num_tasks=1|ElapsedTime=13.9137|ref=0 (l=null, u=null)|s
2022-08-03T15:30:25+02:00|reframe 3.11.0-dev.3+74413987|SpackTest %num_procs=1 %num_threads=2 %bindings=spread @inti:rome-bxi+gnu-11|jobid=1216755|num_tasks=1|ElapsedTime=14.7116|ref=0 (l=null, u=null)|s
2022-08-03T15:32:34+02:00|reframe 3.11.0-dev.3+74413987|SpackTest %num_procs=1 %num_threads=2 %bindings=spread @inti:rome-bxi+gnu-11|jobid=1216840|num_tasks=1|ElapsedTime=14.3782|ref=0 (l=null, u=null)|s
2022-08-03T15:34:44+02:00|reframe 3.11.0-dev.3+74413987|SpackTest %num_procs=1 %num_threads=2 %bindings=spread @inti:rome-bxi+gnu-11|jobid=1216925|num_tasks=1|ElapsedTime=14.3231|ref=0 (l=null, u=null)|s
2022-08-03T15:36:40+02:00|reframe 3.11.0-dev.3+74413987|SpackTest %num_procs=1 %num_threads=2 %bindings=spread @inti:rome-bxi+gnu-11|jobid=1217011|num_tasks=1|ElapsedTime=14.7112|ref=0 (l=null, u=null)|s
