2022-08-03T14:44:15+02:00|reframe 3.11.0-dev.3+74413987|SpackTest %num_procs=8 %num_threads=2 %bindings=spread @inti:rome-bxi+gnu-11|jobid=1215974|num_tasks=8|ElapsedTime=3.48147|ref=0 (l=null, u=null)|s
2022-08-03T15:01:43+02:00|reframe 3.11.0-dev.3+74413987|SpackTest %num_procs=8 %num_threads=2 %bindings=spread @inti:rome-bxi+gnu-11|jobid=1216183|num_tasks=8|ElapsedTime=3.10574|ref=0 (l=null, u=null)|s
2022-08-03T15:21:00+02:00|reframe 3.11.0-dev.3+74413987|SpackTest %num_procs=8 %num_threads=2 %bindings=spread @inti:rome-bxi+gnu-11|jobid=1216357|num_tasks=8|ElapsedTime=3.23687|ref=0 (l=null, u=null)|s
2022-08-03T15:23:05+02:00|reframe 3.11.0-dev.3+74413987|SpackTest %num_procs=8 %num_threads=2 %bindings=spread @inti:rome-bxi+gnu-11|jobid=1216448|num_tasks=8|ElapsedTime=3.32409|ref=0 (l=null, u=null)|s
2022-08-03T15:25:14+02:00|reframe 3.11.0-dev.3+74413987|SpackTest %num_procs=8 %num_threads=2 %bindings=spread @inti:rome-bxi+gnu-11|jobid=1216534|num_tasks=8|ElapsedTime=3.42088|ref=0 (l=null, u=null)|s
2022-08-03T15:27:23+02:00|reframe 3.11.0-dev.3+74413987|SpackTest %num_procs=8 %num_threads=2 %bindings=spread @inti:rome-bxi+gnu-11|jobid=1216621|num_tasks=8|ElapsedTime=3.43165|ref=0 (l=null, u=null)|s
2022-08-03T15:29:33+02:00|reframe 3.11.0-dev.3+74413987|SpackTest %num_procs=8 %num_threads=2 %bindings=spread @inti:rome-bxi+gnu-11|jobid=1216706|num_tasks=8|ElapsedTime=3.0819|ref=0 (l=null, u=null)|s
2022-08-03T15:31:43+02:00|reframe 3.11.0-dev.3+74413987|SpackTest %num_procs=8 %num_threads=2 %bindings=spread @inti:rome-bxi+gnu-11|jobid=1216790|num_tasks=8|ElapsedTime=3.45443|ref=0 (l=null, u=null)|s
2022-08-03T15:33:57+02:00|reframe 3.11.0-dev.3+74413987|SpackTest %num_procs=8 %num_threads=2 %bindings=spread @inti:rome-bxi+gnu-11|jobid=1216876|num_tasks=8|ElapsedTime=3.12498|ref=0 (l=null, u=null)|s
2022-08-03T15:35:49+02:00|reframe 3.11.0-dev.3+74413987|SpackTest %num_procs=8 %num_threads=2 %bindings=spread @inti:rome-bxi+gnu-11|jobid=1216962|num_tasks=8|ElapsedTime=3.18784|ref=0 (l=null, u=null)|s
