2022-08-03T14:38:33+02:00|reframe 3.11.0-dev.3+74413987|SpackTest %num_procs=16 %num_threads=1 %bindings=spread @inti:rome-bxi+gnu-11|jobid=1215948|num_tasks=16|ElapsedTime=1.26406|ref=0 (l=null, u=null)|s
2022-08-03T15:02:58+02:00|reframe 3.11.0-dev.3+74413987|SpackTest %num_procs=16 %num_threads=1 %bindings=spread @inti:rome-bxi+gnu-11|jobid=1216161|num_tasks=16|ElapsedTime=1.34019|ref=0 (l=null, u=null)|s
2022-08-03T15:20:32+02:00|reframe 3.11.0-dev.3+74413987|SpackTest %num_procs=16 %num_threads=1 %bindings=spread @inti:rome-bxi+gnu-11|jobid=1216341|num_tasks=16|ElapsedTime=1.2373|ref=0 (l=null, u=null)|s
2022-08-03T15:22:42+02:00|reframe 3.11.0-dev.3+74413987|SpackTest %num_procs=16 %num_threads=1 %bindings=spread @inti:rome-bxi+gnu-11|jobid=1216433|num_tasks=16|ElapsedTime=1.37587|ref=0 (l=null, u=null)|s
2022-08-03T15:24:52+02:00|reframe 3.11.0-dev.3+74413987|SpackTest %num_procs=16 %num_threads=1 %bindings=spread @inti:rome-bxi+gnu-11|jobid=1216520|num_tasks=16|ElapsedTime=1.25548|ref=0 (l=null, u=null)|s
2022-08-03T15:26:59+02:00|reframe 3.11.0-dev.3+74413987|SpackTest %num_procs=16 %num_threads=1 %bindings=spread @inti:rome-bxi+gnu-11|jobid=1216605|num_tasks=16|ElapsedTime=1.21708|ref=0 (l=null, u=null)|s
2022-08-03T15:29:10+02:00|reframe 3.11.0-dev.3+74413987|SpackTest %num_procs=16 %num_threads=1 %bindings=spread @inti:rome-bxi+gnu-11|jobid=1216692|num_tasks=16|ElapsedTime=1.27645|ref=0 (l=null, u=null)|s
2022-08-03T15:31:21+02:00|reframe 3.11.0-dev.3+74413987|SpackTest %num_procs=16 %num_threads=1 %bindings=spread @inti:rome-bxi+gnu-11|jobid=1216776|num_tasks=16|ElapsedTime=1.60888|ref=0 (l=null, u=null)|s
2022-08-03T15:33:34+02:00|reframe 3.11.0-dev.3+74413987|SpackTest %num_procs=16 %num_threads=1 %bindings=spread @inti:rome-bxi+gnu-11|jobid=1216862|num_tasks=16|ElapsedTime=1.33708|ref=0 (l=null, u=null)|s
2022-08-03T15:35:35+02:00|reframe 3.11.0-dev.3+74413987|SpackTest %num_procs=16 %num_threads=1 %bindings=spread @inti:rome-bxi+gnu-11|jobid=1216948|num_tasks=16|ElapsedTime=1.341|ref=0 (l=null, u=null)|s
