2022-08-01T11:49:52+02:00|reframe 3.11.0-dev.3+74413987|SpackTest %num_procs=2 %num_threads=2 %bindings=spread @inti:rome-bxi+gnu-11|jobid=1208824|num_tasks=2|ElapsedTime=180.64|ref=0 (l=null, u=null)|s
2022-08-01T12:03:14+02:00|reframe 3.11.0-dev.3+74413987|SpackTest %num_procs=2 %num_threads=2 %bindings=spread @inti:rome-bxi+gnu-11|jobid=1208924|num_tasks=2|ElapsedTime=179.831|ref=0 (l=null, u=null)|s
2022-08-01T12:20:57+02:00|reframe 3.11.0-dev.3+74413987|SpackTest %num_procs=2 %num_threads=2 %bindings=spread @inti:rome-bxi+gnu-11|jobid=1209033|num_tasks=2|ElapsedTime=189.202|ref=0 (l=null, u=null)|s
2022-08-01T12:34:20+02:00|reframe 3.11.0-dev.3+74413987|SpackTest %num_procs=2 %num_threads=2 %bindings=spread @inti:rome-bxi+gnu-11|jobid=1209122|num_tasks=2|ElapsedTime=176.027|ref=0 (l=null, u=null)|s
2022-08-01T12:47:50+02:00|reframe 3.11.0-dev.3+74413987|SpackTest %num_procs=2 %num_threads=2 %bindings=spread @inti:rome-bxi+gnu-11|jobid=1209225|num_tasks=2|ElapsedTime=188.031|ref=0 (l=null, u=null)|s
2022-08-01T13:00:51+02:00|reframe 3.11.0-dev.3+74413987|SpackTest %num_procs=2 %num_threads=2 %bindings=spread @inti:rome-bxi+gnu-11|jobid=1209328|num_tasks=2|ElapsedTime=180.884|ref=0 (l=null, u=null)|s
2022-08-01T13:19:36+02:00|reframe 3.11.0-dev.3+74413987|SpackTest %num_procs=2 %num_threads=2 %bindings=spread @inti:rome-bxi+gnu-11|jobid=1209417|num_tasks=2|ElapsedTime=184.819|ref=0 (l=null, u=null)|s
2022-08-01T13:39:10+02:00|reframe 3.11.0-dev.3+74413987|SpackTest %num_procs=2 %num_threads=2 %bindings=spread @inti:rome-bxi+gnu-11|jobid=1209513|num_tasks=2|ElapsedTime=186.909|ref=0 (l=null, u=null)|s
2022-08-01T13:55:15+02:00|reframe 3.11.0-dev.3+74413987|SpackTest %num_procs=2 %num_threads=2 %bindings=spread @inti:rome-bxi+gnu-11|jobid=1209606|num_tasks=2|ElapsedTime=179.544|ref=0 (l=null, u=null)|s
2022-08-01T14:09:20+02:00|reframe 3.11.0-dev.3+74413987|SpackTest %num_procs=2 %num_threads=2 %bindings=spread @inti:rome-bxi+gnu-11|jobid=1209705|num_tasks=2|ElapsedTime=175.916|ref=0 (l=null, u=null)|s
