2022-08-01T11:50:28+02:00|reframe 3.11.0-dev.3+74413987|SpackTest %num_procs=4 %num_threads=2 %bindings=spread @inti:milan-bxi+gnu-11|jobid=1208806|num_tasks=4|ElapsedTime=113.345|ref=0 (l=null, u=null)|s
2022-08-01T12:03:14+02:00|reframe 3.11.0-dev.3+74413987|SpackTest %num_procs=4 %num_threads=2 %bindings=spread @inti:milan-bxi+gnu-11|jobid=1208907|num_tasks=4|ElapsedTime=106.638|ref=0 (l=null, u=null)|s
2022-08-01T12:21:30+02:00|reframe 3.11.0-dev.3+74413987|SpackTest %num_procs=4 %num_threads=2 %bindings=spread @inti:milan-bxi+gnu-11|jobid=1209016|num_tasks=4|ElapsedTime=110.784|ref=0 (l=null, u=null)|s
2022-08-01T12:34:44+02:00|reframe 3.11.0-dev.3+74413987|SpackTest %num_procs=4 %num_threads=2 %bindings=spread @inti:milan-bxi+gnu-11|jobid=1209105|num_tasks=4|ElapsedTime=108.59|ref=0 (l=null, u=null)|s
2022-08-01T12:47:54+02:00|reframe 3.11.0-dev.3+74413987|SpackTest %num_procs=4 %num_threads=2 %bindings=spread @inti:milan-bxi+gnu-11|jobid=1209208|num_tasks=4|ElapsedTime=97.3638|ref=0 (l=null, u=null)|s
2022-08-01T13:02:46+02:00|reframe 3.11.0-dev.3+74413987|SpackTest %num_procs=4 %num_threads=2 %bindings=spread @inti:milan-bxi+gnu-11|jobid=1209311|num_tasks=4|ElapsedTime=108.025|ref=0 (l=null, u=null)|s
2022-08-01T13:23:20+02:00|reframe 3.11.0-dev.3+74413987|SpackTest %num_procs=4 %num_threads=2 %bindings=spread @inti:milan-bxi+gnu-11|jobid=1209400|num_tasks=4|ElapsedTime=112.452|ref=0 (l=null, u=null)|s
2022-08-01T13:42:41+02:00|reframe 3.11.0-dev.3+74413987|SpackTest %num_procs=4 %num_threads=2 %bindings=spread @inti:milan-bxi+gnu-11|jobid=1209495|num_tasks=4|ElapsedTime=106.467|ref=0 (l=null, u=null)|s
2022-08-01T13:56:36+02:00|reframe 3.11.0-dev.3+74413987|SpackTest %num_procs=4 %num_threads=2 %bindings=spread @inti:milan-bxi+gnu-11|jobid=1209589|num_tasks=4|ElapsedTime=111.763|ref=0 (l=null, u=null)|s
2022-08-01T14:09:21+02:00|reframe 3.11.0-dev.3+74413987|SpackTest %num_procs=4 %num_threads=2 %bindings=spread @inti:milan-bxi+gnu-11|jobid=1209687|num_tasks=4|ElapsedTime=111.297|ref=0 (l=null, u=null)|s
