2022-07-29T10:56:42+02:00|reframe 3.11.0-dev.3+74413987|SpackTest %num_procs=4 %num_threads=16 %bindings=spread @inti:rome-bxi+gnu-11|jobid=1206677|num_tasks=4|ElapsedTime=348.546|ref=0 (l=null, u=null)|s
2022-07-29T11:51:00+02:00|reframe 3.11.0-dev.3+74413987|SpackTest %num_procs=4 %num_threads=16 %bindings=spread @inti:rome-bxi+gnu-11|jobid=1206849|num_tasks=4|ElapsedTime=332.362|ref=0 (l=null, u=null)|s
2022-07-29T12:32:45+02:00|reframe 3.11.0-dev.3+74413987|SpackTest %num_procs=4 %num_threads=16 %bindings=spread @inti:rome-bxi+gnu-11|jobid=1206988|num_tasks=4|ElapsedTime=328.279|ref=0 (l=null, u=null)|s
2022-07-29T13:19:34+02:00|reframe 3.11.0-dev.3+74413987|SpackTest %num_procs=4 %num_threads=16 %bindings=spread @inti:rome-bxi+gnu-11|jobid=1207089|num_tasks=4|ElapsedTime=335.301|ref=0 (l=null, u=null)|s
2022-07-29T14:05:46+02:00|reframe 3.11.0-dev.3+74413987|SpackTest %num_procs=4 %num_threads=16 %bindings=spread @inti:rome-bxi+gnu-11|jobid=1207228|num_tasks=4|ElapsedTime=329.827|ref=0 (l=null, u=null)|s
2022-07-29T14:54:35+02:00|reframe 3.11.0-dev.3+74413987|SpackTest %num_procs=4 %num_threads=16 %bindings=spread @inti:rome-bxi+gnu-11|jobid=1207405|num_tasks=4|ElapsedTime=326.93|ref=0 (l=null, u=null)|s
2022-07-29T15:39:45+02:00|reframe 3.11.0-dev.3+74413987|SpackTest %num_procs=4 %num_threads=16 %bindings=spread @inti:rome-bxi+gnu-11|jobid=1207550|num_tasks=4|ElapsedTime=329.456|ref=0 (l=null, u=null)|s
2022-07-29T16:28:46+02:00|reframe 3.11.0-dev.3+74413987|SpackTest %num_procs=4 %num_threads=16 %bindings=spread @inti:rome-bxi+gnu-11|jobid=1207716|num_tasks=4|ElapsedTime=343.022|ref=0 (l=null, u=null)|s
2022-07-29T17:13:23+02:00|reframe 3.11.0-dev.3+74413987|SpackTest %num_procs=4 %num_threads=16 %bindings=spread @inti:rome-bxi+gnu-11|jobid=1207865|num_tasks=4|ElapsedTime=335.61|ref=0 (l=null, u=null)|s
2022-07-29T17:57:47+02:00|reframe 3.11.0-dev.3+74413987|SpackTest %num_procs=4 %num_threads=16 %bindings=spread @inti:rome-bxi+gnu-11|jobid=1208009|num_tasks=4|ElapsedTime=342.129|ref=0 (l=null, u=null)|s
