2022-07-29T10:54:59+02:00|reframe 3.11.0-dev.3+74413987|SpackTest %num_procs=8 %num_threads=8 %bindings=spread @inti:milan-bxi+gnu-11|jobid=1206662|num_tasks=8|ElapsedTime=197.613|ref=0 (l=null, u=null)|s
2022-07-29T11:48:53+02:00|reframe 3.11.0-dev.3+74413987|SpackTest %num_procs=8 %num_threads=8 %bindings=spread @inti:milan-bxi+gnu-11|jobid=1206833|num_tasks=8|ElapsedTime=190.428|ref=0 (l=null, u=null)|s
2022-07-29T12:32:02+02:00|reframe 3.11.0-dev.3+74413987|SpackTest %num_procs=8 %num_threads=8 %bindings=spread @inti:milan-bxi+gnu-11|jobid=1206973|num_tasks=8|ElapsedTime=199.533|ref=0 (l=null, u=null)|s
2022-07-29T13:21:54+02:00|reframe 3.11.0-dev.3+74413987|SpackTest %num_procs=8 %num_threads=8 %bindings=spread @inti:milan-bxi+gnu-11|jobid=1207074|num_tasks=8|ElapsedTime=204.604|ref=0 (l=null, u=null)|s
2022-07-29T14:03:44+02:00|reframe 3.11.0-dev.3+74413987|SpackTest %num_procs=8 %num_threads=8 %bindings=spread @inti:milan-bxi+gnu-11|jobid=1207212|num_tasks=8|ElapsedTime=195.682|ref=0 (l=null, u=null)|s
2022-07-29T14:55:36+02:00|reframe 3.11.0-dev.3+74413987|SpackTest %num_procs=8 %num_threads=8 %bindings=spread @inti:milan-bxi+gnu-11|jobid=1207390|num_tasks=8|ElapsedTime=196.869|ref=0 (l=null, u=null)|s
2022-07-29T15:40:07+02:00|reframe 3.11.0-dev.3+74413987|SpackTest %num_procs=8 %num_threads=8 %bindings=spread @inti:milan-bxi+gnu-11|jobid=1207534|num_tasks=8|ElapsedTime=200.444|ref=0 (l=null, u=null)|s
2022-07-29T16:28:47+02:00|reframe 3.11.0-dev.3+74413987|SpackTest %num_procs=8 %num_threads=8 %bindings=spread @inti:milan-bxi+gnu-11|jobid=1207700|num_tasks=8|ElapsedTime=212.131|ref=0 (l=null, u=null)|s
2022-07-29T17:10:57+02:00|reframe 3.11.0-dev.3+74413987|SpackTest %num_procs=8 %num_threads=8 %bindings=spread @inti:milan-bxi+gnu-11|jobid=1207850|num_tasks=8|ElapsedTime=191.003|ref=0 (l=null, u=null)|s
2022-07-29T17:53:57+02:00|reframe 3.11.0-dev.3+74413987|SpackTest %num_procs=8 %num_threads=8 %bindings=spread @inti:milan-bxi+gnu-11|jobid=1207993|num_tasks=8|ElapsedTime=189.774|ref=0 (l=null, u=null)|s
